1||1000230004|1|||||6|KC Fong||+60162687273|Fong KC|56789|No. 3, Jln 333, Address 444, 56789 KL, W.P Kuala Lumpur, Malaysia||+60162687273|+60162687273|1|Singapore food supplement|https://mystore.brandsworld.com.sg|14005144|Sesamin with Schisandra Extract 60 Tablets|1|SALEORDER_20200302_14.TXT||123.32|E-commerce - NONE|PK|0|Y|||||||Small box|
1||1000230007|1|||||6|KC Fong||+60162687273|Fong KC|56789|No. 3, Jln 333, Address 444, 56789 KL, W.P Kuala Lumpur, Malaysia||+60162687273|+60162687273|1|Singapore food supplement|https://mystore.brandsworld.com.sg|14000939|InnerShine RubyCollagen Essence Strips 10s|1|SALEORDER_20200302_14.TXT||114.03|E-commerce - NONE|PK|0|Y|||||||Small box|
1||1000230010|1|||||6|KC Fong||+60162687273|Fong KC|56789|No. 3, Jln 333, Address 444, 56789 KL, W.P Kuala Lumpur, Malaysia||+60162687273|+60162687273|1|Singapore food supplement|https://mystore.brandsworld.com.sg|14002348|ActivMove 30 Tablets|1|SALEORDER_20200302_14.TXT||150.04|E-commerce - NONE|PK|0|Y|||||||Small box|
1||1000230013|1|||||6|KC Fong||+60162687273|Fong KC|56789|No. 3, Jln 333, Address 444, 56789 KL, W.P Kuala Lumpur, Malaysia||+60162687273|+60162687273|1|Singapore food supplement|https://mystore.brandsworld.com.sg|14005144|Sesamin with Schisandra Extract 60 Tablets|1|SALEORDER_20200302_14.TXT||123.32|E-commerce - NONE|PK|0|Y|||||||Small box|
1||1000230016|1|||||6|KC Fong||+60162687273|Fong KC|56789|No. 3, Jln 333, Address 444, 56789 KL, W.P Kuala Lumpur, Malaysia||+60162687273|+60162687273|1|Singapore food supplement|https://mystore.brandsworld.com.sg|14000939|InnerShine RubyCollagen Essence Strips 10s|1|SALEORDER_20200302_14.TXT||114.03|E-commerce - NONE|PK|0|Y|||||||Small box|
1||1000230022|1|||||6|KC Fong||+60162687273|Fong KC|56789|No. 3, Jln 333, Address 444, 56789 KL, W.P Kuala Lumpur, Malaysia|test|+60162687273|+60162687273|1|Singapore food supplement|https://mystore.brandsworld.com.sg|14005144|Sesamin with Schisandra Extract 60 Tablets|2|SALEORDER_20200302_14.TXT||435.38|E-commerce - NONE|PK|0|Y|||||||Small box|
1||1000230022|1|||||6|KC Fong||+60162687273|Fong KC|56789|No. 3, Jln 333, Address 444, 56789 KL, W.P Kuala Lumpur, Malaysia|test|+60162687273|+60162687273|2|Singapore food supplement|https://mystore.brandsworld.com.sg|14005143|Blackcurrant Anthocyanins with Lutein 60 Tablets|2|SALEORDER_20200302_14.TXT||435.38|E-commerce - NONE|PK|0|Y|||||||Small box|
