"Item No.","Order Type","Sales Organization","Distribution Channel","Division","Sales office","Sales group","Transaction Date","Customer Number","Customer Group","Customer Group 1","Customer Group 2","Customer Group 3","Customer Group 4","Reference number","Reference tax invoice","PO Number","Order Reason","Credit Card Charge","Material Number","Material Description","Quantity","UOM","Price  include tax","Price Per","Price UOM","Discount  include tax","Discount Per","Discount UOM","Delivery cost 1 include tax","Delivery cost per","Delivery cost UOM","N/A","Plant","Storage Location","Batch number","WBS",
"10","ZDS1","SG01","50","0","1000","101","2020.03.11","5000352","","","","","","","","1000230031","","","14005147","","2","PK","34.49","1","PK","0","1","PK","6.400000","1","PK","","","1001","","",
"20","ZDS1","SG01","50","0","1000","101","2020.03.11","5000352","","","","","","","","1000230031","","","14002348","","2","PK","43.35","1","PK","4.335","1","PK","6.400000","1","PK","","","1001","","",
"10","ZDS1","SG01","50","0","1000","101","2020.03.13","5000352","","","","","","","","1000230040","","","14005144","","1","PK","34.49","1","PK","0","1","PK","6.400000","1","PK","","","1001","","",
